EESchema Schematic File Version 4
EELAYER 30 0
EELAYER END
$Descr A4 11693 8268
encoding utf-8
Sheet 3 7
Title ""
Date ""
Rev ""
Comp ""
Comment1 ""
Comment2 ""
Comment3 ""
Comment4 ""
$EndDescr
Wire Wire Line
	5800 4400 5800 4550
Wire Wire Line
	5800 4550 5900 4550
Wire Wire Line
	5900 4550 5900 4400
Wire Wire Line
	5900 4550 6000 4550
Wire Wire Line
	6000 4550 6000 4400
Connection ~ 5900 4550
$Comp
L power:GND #PWR?
U 1 1 5F80AFBB
P 5900 4700
AR Path="/5F80AFBB" Ref="#PWR?"  Part="1" 
AR Path="/5F7F8F70/5F80AFBB" Ref="#PWR0113"  Part="1" 
F 0 "#PWR0113" H 5900 4450 50  0001 C CNN
F 1 "GND" H 5905 4527 50  0000 C CNN
F 2 "" H 5900 4700 50  0001 C CNN
F 3 "" H 5900 4700 50  0001 C CNN
	1    5900 4700
	1    0    0    -1  
$EndComp
Wire Wire Line
	5900 4700 5900 4550
$Comp
L Device:C C?
U 1 1 5F80AFC3
P 6750 2800
AR Path="/5F80AFC3" Ref="C?"  Part="1" 
AR Path="/5F7F8F70/5F80AFC3" Ref="C8"  Part="1" 
F 0 "C8" H 6865 2846 50  0000 L CNN
F 1 "100n" H 6865 2755 50  0000 L CNN
F 2 "Capacitor_SMD:C_0603_1608Metric_Pad1.05x0.95mm_HandSolder" H 6788 2650 50  0001 C CNN
F 3 "~" H 6750 2800 50  0001 C CNN
F 4 "C14663" H 6750 2800 50  0001 C CNN "LCSC Part #"
F 5 "C14663" H 6750 2800 50  0001 C CNN "LCSC"
	1    6750 2800
	1    0    0    -1  
$EndComp
Wire Wire Line
	6750 2500 6750 2650
$Comp
L RFM95:RFM95HW U?
U 1 1 5F80AFD1
P 5900 3550
AR Path="/5F80AFD1" Ref="U?"  Part="1" 
AR Path="/5F7F8F70/5F80AFD1" Ref="U3"  Part="1" 
F 0 "U3" H 5500 3900 40  0000 L CNN
F 1 "RFM95HW" H 5500 3800 40  0000 L CNN
F 2 "project-footprints:RFM95" H 5900 3550 30  0001 C CIN
F 3 "https://cdn-learn.adafruit.com/assets/assets/000/031/659/original/RFM95_96_97_98W.pdf?1460518717" H 5900 3997 60  0001 C CNN
	1    5900 3550
	1    0    0    -1  
$EndComp
$Comp
L Device:C C?
U 1 1 5F80AFEB
P 7150 2800
AR Path="/5F80AFEB" Ref="C?"  Part="1" 
AR Path="/5F7F8F70/5F80AFEB" Ref="C9"  Part="1" 
F 0 "C9" H 7265 2846 50  0000 L CNN
F 1 "1u" H 7265 2755 50  0000 L CNN
F 2 "Capacitor_SMD:C_0805_2012Metric_Pad1.15x1.40mm_HandSolder" H 7188 2650 50  0001 C CNN
F 3 "~" H 7150 2800 50  0001 C CNN
F 4 "C28323" H 7150 2800 50  0001 C CNN "LCSC Part #"
F 5 "C28323" H 7150 2800 50  0001 C CNN "LCSC"
	1    7150 2800
	1    0    0    -1  
$EndComp
Wire Wire Line
	7150 2500 7150 2650
Wire Wire Line
	6750 2500 7150 2500
Connection ~ 6750 2500
Wire Wire Line
	5900 2500 6750 2500
Wire Wire Line
	5000 3400 5350 3400
Wire Wire Line
	5350 3600 4200 3600
Text HLabel 4200 3600 0    50   Input ~ 0
NSS_PA4
Wire Wire Line
	5350 3700 5100 3700
Wire Wire Line
	5100 3700 5100 5000
Wire Wire Line
	5100 5000 7800 5000
Text HLabel 7800 5000 2    50   Output ~ 0
MOSI_PA7
Wire Wire Line
	5350 3800 4200 3800
Text HLabel 4200 3800 0    50   Input ~ 0
MISO_PA6
Wire Wire Line
	5350 3900 4200 3900
Text HLabel 4200 3900 0    50   Input ~ 0
SCK_PA5
Wire Wire Line
	5350 4100 4200 4100
Text HLabel 4200 4100 0    50   Input ~ 0
RESET_PA2
Text HLabel 7800 3550 2    50   Output ~ 0
DIO0_PA3
Wire Wire Line
	6450 3550 7800 3550
Wire Wire Line
	7150 3100 7150 2950
$Comp
L power:GND #PWR?
U 1 1 5F80AFF1
P 7150 3100
AR Path="/5F80AFF1" Ref="#PWR?"  Part="1" 
AR Path="/5F7F8F70/5F80AFF1" Ref="#PWR0114"  Part="1" 
F 0 "#PWR0114" H 7150 2850 50  0001 C CNN
F 1 "GND" H 7155 2927 50  0000 C CNN
F 2 "" H 7150 3100 50  0001 C CNN
F 3 "" H 7150 3100 50  0001 C CNN
	1    7150 3100
	1    0    0    -1  
$EndComp
Wire Wire Line
	6750 2950 6750 3100
$Comp
L power:GND #PWR?
U 1 1 5F80AFCA
P 6750 3100
AR Path="/5F80AFCA" Ref="#PWR?"  Part="1" 
AR Path="/5F7F8F70/5F80AFCA" Ref="#PWR0115"  Part="1" 
F 0 "#PWR0115" H 6750 2850 50  0001 C CNN
F 1 "GND" H 6755 2927 50  0000 C CNN
F 2 "" H 6750 3100 50  0001 C CNN
F 3 "" H 6750 3100 50  0001 C CNN
	1    6750 3100
	1    0    0    -1  
$EndComp
Wire Wire Line
	5900 2500 5900 3200
Wire Wire Line
	6450 3650 7800 3650
Text HLabel 7800 3650 2    50   Output ~ 0
DIO1_PB0
Wire Wire Line
	4200 2500 5900 2500
Connection ~ 5900 2500
Text HLabel 4200 2500 0    50   Input ~ 0
P3V3
Wire Wire Line
	5000 3400 5000 5100
Wire Wire Line
	5000 5100 7800 5100
Text HLabel 7800 5100 2    50   Output ~ 0
ANT
$EndSCHEMATC
