EESchema Schematic File Version 4
EELAYER 30 0
EELAYER END
$Descr A4 11693 8268
encoding utf-8
Sheet 2 7
Title ""
Date ""
Rev ""
Comp ""
Comment1 ""
Comment2 ""
Comment3 ""
Comment4 ""
$EndDescr
$Comp
L Regulator_Linear:TLV70230_SOT23-5 U2
U 1 1 5F7F04A3
P 6750 3650
F 0 "U2" H 6750 3992 50  0000 C CNN
F 1 "TLV70230_SOT23-5" H 6750 3901 50  0000 C CNN
F 2 "Package_TO_SOT_SMD:SOT-23-5" H 6750 3975 50  0001 C CIN
F 3 "http://www.ti.com/lit/ds/symlink/tlv702.pdf" H 6750 3700 50  0001 C CNN
	1    6750 3650
	1    0    0    -1  
$EndComp
Wire Wire Line
	7050 3550 7250 3550
$Comp
L power:GND #PWR0103
U 1 1 5F7F04B1
P 6750 4650
F 0 "#PWR0103" H 6750 4400 50  0001 C CNN
F 1 "GND" H 6755 4477 50  0000 C CNN
F 2 "" H 6750 4650 50  0001 C CNN
F 3 "" H 6750 4650 50  0001 C CNN
	1    6750 4650
	1    0    0    -1  
$EndComp
Wire Wire Line
	6750 3950 6750 4650
Wire Wire Line
	5650 3550 6050 3550
Wire Wire Line
	6450 3650 6350 3650
Wire Wire Line
	6350 3650 6350 3550
Connection ~ 6350 3550
Wire Wire Line
	6350 3550 6450 3550
$Comp
L Device:C C7
U 1 1 5F7F04C4
P 7650 4050
F 0 "C7" H 7765 4096 50  0000 L CNN
F 1 "1u" H 7765 4005 50  0000 L CNN
F 2 "Capacitor_SMD:C_0805_2012Metric_Pad1.15x1.40mm_HandSolder" H 7688 3900 50  0001 C CNN
F 3 "~" H 7650 4050 50  0001 C CNN
F 4 "C28323" H 7650 4050 50  0001 C CNN "LCSC Part #"
F 5 "C28323" H 7650 4050 50  0001 C CNN "LCSC"
	1    7650 4050
	1    0    0    -1  
$EndComp
$Comp
L Device:C C3
U 1 1 5F7F04CA
P 5650 4050
F 0 "C3" H 5765 4096 50  0000 L CNN
F 1 "10u" H 5765 4005 50  0000 L CNN
F 2 "Capacitor_SMD:C_0805_2012Metric_Pad1.15x1.40mm_HandSolder" H 5688 3900 50  0001 C CNN
F 3 "~" H 5650 4050 50  0001 C CNN
F 4 "C15850" H 5650 4050 50  0001 C CNN "LCSC Part #"
F 5 "C15850" H 5650 4050 50  0001 C CNN "LCSC"
	1    5650 4050
	1    0    0    -1  
$EndComp
$Comp
L power:GND #PWR0104
U 1 1 5F7F04D0
P 7650 4650
F 0 "#PWR0104" H 7650 4400 50  0001 C CNN
F 1 "GND" H 7655 4477 50  0000 C CNN
F 2 "" H 7650 4650 50  0001 C CNN
F 3 "" H 7650 4650 50  0001 C CNN
	1    7650 4650
	1    0    0    -1  
$EndComp
$Comp
L power:GND #PWR0105
U 1 1 5F7F04D6
P 5650 4650
F 0 "#PWR0105" H 5650 4400 50  0001 C CNN
F 1 "GND" H 5655 4477 50  0000 C CNN
F 2 "" H 5650 4650 50  0001 C CNN
F 3 "" H 5650 4650 50  0001 C CNN
	1    5650 4650
	1    0    0    -1  
$EndComp
Wire Wire Line
	5650 4650 5650 4200
Wire Wire Line
	7650 4650 7650 4200
Wire Wire Line
	7650 3900 7650 3550
Connection ~ 7650 3550
Wire Wire Line
	5650 3900 5650 3550
$Comp
L Device:C C4
U 1 1 5F7F04E2
P 6050 4050
F 0 "C4" H 6165 4096 50  0000 L CNN
F 1 "100n" H 6165 4005 50  0000 L CNN
F 2 "Capacitor_SMD:C_0603_1608Metric_Pad1.05x0.95mm_HandSolder" H 6088 3900 50  0001 C CNN
F 3 "~" H 6050 4050 50  0001 C CNN
F 4 "C14663" H 6050 4050 50  0001 C CNN "LCSC Part #"
F 5 "C14663" H 6050 4050 50  0001 C CNN "LCSC"
	1    6050 4050
	1    0    0    -1  
$EndComp
$Comp
L Device:C C6
U 1 1 5F7F04E8
P 7250 4050
F 0 "C6" H 7365 4096 50  0000 L CNN
F 1 "100n" H 7365 4005 50  0000 L CNN
F 2 "Capacitor_SMD:C_0603_1608Metric_Pad1.05x0.95mm_HandSolder" H 7288 3900 50  0001 C CNN
F 3 "~" H 7250 4050 50  0001 C CNN
F 4 "C14663" H 7250 4050 50  0001 C CNN "LCSC Part #"
F 5 "C14663" H 7250 4050 50  0001 C CNN "LCSC"
	1    7250 4050
	1    0    0    -1  
$EndComp
$Comp
L power:GND #PWR0106
U 1 1 5F7F04EE
P 6050 4650
F 0 "#PWR0106" H 6050 4400 50  0001 C CNN
F 1 "GND" H 6055 4477 50  0000 C CNN
F 2 "" H 6050 4650 50  0001 C CNN
F 3 "" H 6050 4650 50  0001 C CNN
	1    6050 4650
	1    0    0    -1  
$EndComp
$Comp
L power:GND #PWR0107
U 1 1 5F7F04F4
P 7250 4650
F 0 "#PWR0107" H 7250 4400 50  0001 C CNN
F 1 "GND" H 7255 4477 50  0000 C CNN
F 2 "" H 7250 4650 50  0001 C CNN
F 3 "" H 7250 4650 50  0001 C CNN
	1    7250 4650
	1    0    0    -1  
$EndComp
Wire Wire Line
	6050 3900 6050 3550
Connection ~ 6050 3550
Wire Wire Line
	6050 3550 6250 3550
Wire Wire Line
	6050 4200 6050 4650
Wire Wire Line
	7250 4650 7250 4200
Wire Wire Line
	7250 3900 7250 3550
Connection ~ 7250 3550
Wire Wire Line
	7250 3550 7650 3550
Text HLabel 9400 3550 2    50   Output ~ 0
P3V3
Connection ~ 5650 3550
Text HLabel 9400 1450 2    50   Output ~ 0
P5V0
$Comp
L Device:R R3
U 1 1 5F8FF90D
P 6850 1700
F 0 "R3" H 6920 1746 50  0000 L CNN
F 1 "100k" H 6920 1655 50  0000 L CNN
F 2 "Resistor_SMD:R_0603_1608Metric_Pad1.05x0.95mm_HandSolder" V 6780 1700 50  0001 C CNN
F 3 "~" H 6850 1700 50  0001 C CNN
	1    6850 1700
	1    0    0    -1  
$EndComp
$Comp
L Device:R R4
U 1 1 5F8FF913
P 6850 2100
F 0 "R4" H 6920 2146 50  0000 L CNN
F 1 "100k" H 6920 2055 50  0000 L CNN
F 2 "Resistor_SMD:R_0603_1608Metric_Pad1.05x0.95mm_HandSolder" V 6780 2100 50  0001 C CNN
F 3 "~" H 6850 2100 50  0001 C CNN
	1    6850 2100
	1    0    0    -1  
$EndComp
$Comp
L power:GND #PWR0108
U 1 1 5F8FF919
P 6850 2300
F 0 "#PWR0108" H 6850 2050 50  0001 C CNN
F 1 "GND" H 6855 2127 50  0000 C CNN
F 2 "" H 6850 2300 50  0001 C CNN
F 3 "" H 6850 2300 50  0001 C CNN
	1    6850 2300
	1    0    0    -1  
$EndComp
Wire Wire Line
	6850 1850 6850 1900
Wire Wire Line
	6850 2250 6850 2300
Connection ~ 6850 1900
Wire Wire Line
	6850 1900 6850 1950
$Comp
L Device:C C5
U 1 1 5F8FF924
P 7250 2100
F 0 "C5" H 7365 2146 50  0000 L CNN
F 1 "100n" H 7365 2055 50  0000 L CNN
F 2 "Capacitor_SMD:C_0603_1608Metric_Pad1.05x0.95mm_HandSolder" H 7288 1950 50  0001 C CNN
F 3 "~" H 7250 2100 50  0001 C CNN
F 4 "C14663" H 7250 2100 50  0001 C CNN "LCSC Part #"
F 5 "C14663" H 7250 2100 50  0001 C CNN "LCSC"
	1    7250 2100
	1    0    0    -1  
$EndComp
$Comp
L power:GND #PWR0109
U 1 1 5F8FF92A
P 7250 2300
F 0 "#PWR0109" H 7250 2050 50  0001 C CNN
F 1 "GND" H 7255 2127 50  0000 C CNN
F 2 "" H 7250 2300 50  0001 C CNN
F 3 "" H 7250 2300 50  0001 C CNN
	1    7250 2300
	1    0    0    -1  
$EndComp
Wire Wire Line
	6850 1900 7250 1900
Wire Wire Line
	7250 1900 7250 1950
Wire Wire Line
	7250 2300 7250 2250
Wire Wire Line
	7250 1900 7850 1900
Connection ~ 7250 1900
Text HLabel 7850 1900 2    50   Output ~ 0
PS_SENSE
Text HLabel 2200 2750 0    50   Input ~ 0
P3V3_USB
Wire Wire Line
	8700 3550 9000 3550
Wire Wire Line
	9000 3550 9000 2750
Wire Wire Line
	9000 2750 8700 2750
Wire Wire Line
	2200 2750 8400 2750
Wire Wire Line
	9000 3550 9400 3550
Connection ~ 9000 3550
Wire Wire Line
	2200 2900 2600 2900
Text HLabel 2200 2900 0    50   Input ~ 0
P5V0_USB
Wire Wire Line
	6250 3550 6250 1450
Wire Wire Line
	6250 1450 6850 1450
$Comp
L modex:MT3608 U1
U 1 1 5F9030DF
P 3350 4050
F 0 "U1" H 3350 4375 50  0000 C CNN
F 1 "MT3608" H 3350 4284 50  0000 C CNN
F 2 "" H 3350 4050 50  0001 C CNN
F 3 "" H 3350 4050 50  0001 C CNN
F 4 "C84817" H 3350 4050 50  0001 C CNN "LCSC"
F 5 "C84817" H 3350 4050 50  0001 C CNN "LCSC Part #"
	1    3350 4050
	1    0    0    -1  
$EndComp
Wire Wire Line
	2150 3950 2400 3950
Wire Wire Line
	2400 4500 2400 4350
Wire Wire Line
	2400 4050 2400 3950
Connection ~ 2400 3950
Wire Wire Line
	2400 3950 2900 3950
Wire Wire Line
	2950 4150 2900 4150
Wire Wire Line
	2900 4150 2900 4500
Wire Wire Line
	2400 4500 2900 4500
Wire Wire Line
	2950 4050 2900 4050
Wire Wire Line
	2900 4050 2900 3950
Connection ~ 2900 3950
Wire Wire Line
	2900 3950 2950 3950
$Comp
L power:GND #PWR0110
U 1 1 5F90BA93
P 2400 4600
F 0 "#PWR0110" H 2400 4350 50  0001 C CNN
F 1 "GND" H 2405 4427 50  0000 C CNN
F 2 "" H 2400 4600 50  0001 C CNN
F 3 "" H 2400 4600 50  0001 C CNN
	1    2400 4600
	1    0    0    -1  
$EndComp
Wire Wire Line
	2400 4600 2400 4500
Connection ~ 2400 4500
$Comp
L Device:L L1
U 1 1 5F90DAD3
P 3350 3550
F 0 "L1" V 3540 3550 50  0000 C CNN
F 1 "L" V 3449 3550 50  0000 C CNN
F 2 "" H 3350 3550 50  0001 C CNN
F 3 "~" H 3350 3550 50  0001 C CNN
	1    3350 3550
	0    -1   -1   0   
$EndComp
Wire Wire Line
	2900 3950 2900 3550
Wire Wire Line
	2900 3550 3200 3550
Wire Wire Line
	3500 3550 3850 3550
Wire Wire Line
	3850 3550 3850 3950
Wire Wire Line
	3850 3950 3750 3950
$Comp
L Device:D_Schottky D1
U 1 1 5F915949
P 4150 3550
F 0 "D1" H 4150 3333 50  0000 C CNN
F 1 "B5819W" H 4150 3424 50  0000 C CNN
F 2 "Diode_SMD:D_SOD-123" H 4150 3550 50  0001 C CNN
F 3 "~" H 4150 3550 50  0001 C CNN
F 4 "C8598" H 4150 3550 50  0001 C CNN "LCSC Part #"
F 5 "C8598" H 4150 3550 50  0001 C CNN "LCSC"
	1    4150 3550
	-1   0    0    1   
$EndComp
$Comp
L Device:R R1
U 1 1 5F916907
P 4700 3800
F 0 "R1" H 4770 3846 50  0000 L CNN
F 1 "7k5" H 4770 3755 50  0000 L CNN
F 2 "Resistor_SMD:R_0603_1608Metric_Pad1.05x0.95mm_HandSolder" V 4630 3800 50  0001 C CNN
F 3 "~" H 4700 3800 50  0001 C CNN
	1    4700 3800
	1    0    0    -1  
$EndComp
$Comp
L Device:R R2
U 1 1 5F917291
P 4700 4300
F 0 "R2" H 4770 4346 50  0000 L CNN
F 1 "1k" H 4770 4255 50  0000 L CNN
F 2 "Resistor_SMD:R_0603_1608Metric_Pad1.05x0.95mm_HandSolder" V 4630 4300 50  0001 C CNN
F 3 "~" H 4700 4300 50  0001 C CNN
	1    4700 4300
	1    0    0    -1  
$EndComp
Wire Wire Line
	3850 3550 4000 3550
Connection ~ 3850 3550
Wire Wire Line
	4300 3550 4700 3550
Wire Wire Line
	4700 3550 4700 3650
Wire Wire Line
	4700 3950 4700 4050
Wire Wire Line
	4700 4450 4700 4650
$Comp
L power:GND #PWR0111
U 1 1 5F91C4B2
P 4700 4650
F 0 "#PWR0111" H 4700 4400 50  0001 C CNN
F 1 "GND" H 4705 4477 50  0000 C CNN
F 2 "" H 4700 4650 50  0001 C CNN
F 3 "" H 4700 4650 50  0001 C CNN
	1    4700 4650
	1    0    0    -1  
$EndComp
Wire Wire Line
	3750 4050 4700 4050
Connection ~ 4700 4050
Wire Wire Line
	4700 4050 4700 4150
$Comp
L Device:C C2
U 1 1 5F92B939
P 5200 4050
F 0 "C2" H 5315 4096 50  0000 L CNN
F 1 "4u7" H 5315 4005 50  0000 L CNN
F 2 "Capacitor_SMD:C_0805_2012Metric_Pad1.15x1.40mm_HandSolder" H 5238 3900 50  0001 C CNN
F 3 "~" H 5200 4050 50  0001 C CNN
F 4 "C1779" H 5200 4050 50  0001 C CNN "LCSC Part #"
F 5 "C1779" H 5200 4050 50  0001 C CNN "LCSC"
	1    5200 4050
	1    0    0    -1  
$EndComp
Wire Wire Line
	4700 3550 5200 3550
Wire Wire Line
	5200 3550 5200 3900
Connection ~ 4700 3550
Wire Wire Line
	5200 4200 5200 4650
$Comp
L power:GND #PWR0112
U 1 1 5F932398
P 5200 4650
F 0 "#PWR0112" H 5200 4400 50  0001 C CNN
F 1 "GND" H 5205 4477 50  0000 C CNN
F 2 "" H 5200 4650 50  0001 C CNN
F 3 "" H 5200 4650 50  0001 C CNN
	1    5200 4650
	1    0    0    -1  
$EndComp
Text HLabel 2150 3950 0    50   Input ~ 0
PBAT
Wire Wire Line
	5200 3550 5650 3550
Connection ~ 5200 3550
Connection ~ 6250 3550
Wire Wire Line
	6250 3550 6350 3550
$Comp
L Device:D_Schottky D3
U 1 1 5F99C680
P 8550 3550
F 0 "D3" H 8550 3333 50  0000 C CNN
F 1 "B5819W" H 8550 3424 50  0000 C CNN
F 2 "Diode_SMD:D_SOD-123" H 8550 3550 50  0001 C CNN
F 3 "~" H 8550 3550 50  0001 C CNN
F 4 "C8598" H 8550 3550 50  0001 C CNN "LCSC Part #"
F 5 "C8598" H 8550 3550 50  0001 C CNN "LCSC"
	1    8550 3550
	-1   0    0    1   
$EndComp
$Comp
L Device:D_Schottky D2
U 1 1 5F99CC6F
P 8550 2750
F 0 "D2" H 8550 2533 50  0000 C CNN
F 1 "B5819W" H 8550 2624 50  0000 C CNN
F 2 "Diode_SMD:D_SOD-123" H 8550 2750 50  0001 C CNN
F 3 "~" H 8550 2750 50  0001 C CNN
F 4 "C8598" H 8550 2750 50  0001 C CNN "LCSC Part #"
F 5 "C8598" H 8550 2750 50  0001 C CNN "LCSC"
	1    8550 2750
	-1   0    0    1   
$EndComp
Wire Wire Line
	7650 3550 8400 3550
Wire Wire Line
	6850 1450 6850 1550
Connection ~ 6850 1450
Wire Wire Line
	6850 1450 9400 1450
$Comp
L Device:C C1
U 1 1 5F91CCB2
P 2400 4200
F 0 "C1" H 2515 4246 50  0000 L CNN
F 1 "4u7" H 2515 4155 50  0000 L CNN
F 2 "Capacitor_SMD:C_0805_2012Metric_Pad1.15x1.40mm_HandSolder" H 2438 4050 50  0001 C CNN
F 3 "~" H 2400 4200 50  0001 C CNN
F 4 "C1779" H 2400 4200 50  0001 C CNN "LCSC Part #"
F 5 "C1779" H 2400 4200 50  0001 C CNN "LCSC"
	1    2400 4200
	1    0    0    -1  
$EndComp
$EndSCHEMATC
