EESchema Schematic File Version 4
EELAYER 30 0
EELAYER END
$Descr A4 11693 8268
encoding utf-8
Sheet 1 7
Title "Lora sensor node"
Date ""
Rev "1.0"
Comp "Modex electronics b.v."
Comment1 ""
Comment2 ""
Comment3 ""
Comment4 ""
$EndDescr
$Sheet
S 2350 950  1400 850 
U 5F7D7128
F0 "power_supply" 50
F1 "power_supply.sch" 50
F2 "P3V3" O R 3750 1100 50 
F3 "PS_SENSE" O R 3750 1300 50 
F4 "P3V3_USB" I L 2350 1200 50 
F5 "P5V0_USB" I L 2350 1100 50 
F6 "P5V0" O R 3750 1200 50 
F7 "PBAT" I L 2350 1350 50 
$EndSheet
$Sheet
S 7400 1850 1050 1000
U 5F7F8F70
F0 "lora_radio" 50
F1 "lora_radio.sch" 50
F2 "NSS_PA4" I L 7400 2250 50 
F3 "MOSI_PA7" O L 7400 2550 50 
F4 "MISO_PA6" I L 7400 2350 50 
F5 "SCK_PA5" I L 7400 2450 50 
F6 "RESET_PA2" I L 7400 2150 50 
F7 "DIO0_PA3" O L 7400 2650 50 
F8 "DIO1_PB0" O L 7400 2750 50 
F9 "P3V3" I L 7400 1950 50 
F10 "ANT" O R 8450 2150 50 
$EndSheet
$Sheet
S 4650 1850 1800 3850
U 5F823278
F0 "stm32f411" 50
F1 "stm32f411.sch" 50
F2 "RESET_PA2" O R 6450 2150 50 
F3 "NSS_PA4" O R 6450 2250 50 
F4 "MISO_PA6" O R 6450 2350 50 
F5 "SCK_PA5" O R 6450 2450 50 
F6 "MOSI_PA7" I R 6450 2550 50 
F7 "DIO0_PA3" I R 6450 2650 50 
F8 "DIO1_PB0" I R 6450 2750 50 
F9 "P3V3" I L 4650 1950 50 
F10 "TEMP_PB1" B R 6450 3100 50 
F11 "PS_SENSE" I L 4650 2150 50 
F12 "UART_TX_PA9" O L 4650 2700 50 
F13 "UART_RX_PA10" I L 4650 2800 50 
F14 "SCL_PB6" O R 6450 4150 50 
F15 "SDA_PB7" B R 6450 4250 50 
F16 "GPS_TX" O R 6450 4800 50 
F17 "GPS_RX" I R 6450 4900 50 
F18 "SWDIO" B L 4650 5300 50 
F19 "SWCLK" I L 4650 5400 50 
F20 "NRST" I L 4650 5600 50 
F21 "SWO" O L 4650 5500 50 
$EndSheet
$Comp
L Connector:Conn_Coaxial J2
U 1 1 5F8E63EE
P 9800 2150
AR Path="/5F8E63EE" Ref="J2"  Part="1" 
AR Path="/5F7F8F70/5F8E63EE" Ref="J?"  Part="1" 
F 0 "J2" H 9728 2388 50  0000 C CNN
F 1 "SMA-F" H 9728 2297 50  0000 C CNN
F 2 "Connector_Coaxial:SMA_Amphenol_901-144_Vertical" H 9800 2150 50  0001 C CNN
F 3 " ~" H 9800 2150 50  0001 C CNN
	1    9800 2150
	1    0    0    -1  
$EndComp
$Comp
L power:GND #PWR0101
U 1 1 5F8E63F4
P 9800 2350
AR Path="/5F8E63F4" Ref="#PWR0101"  Part="1" 
AR Path="/5F7F8F70/5F8E63F4" Ref="#PWR?"  Part="1" 
F 0 "#PWR0101" H 9800 2100 50  0001 C CNN
F 1 "GND" H 9805 2177 50  0000 C CNN
F 2 "" H 9800 2350 50  0001 C CNN
F 3 "" H 9800 2350 50  0001 C CNN
	1    9800 2350
	1    0    0    -1  
$EndComp
Wire Wire Line
	9600 2150 8450 2150
Wire Wire Line
	6450 2750 7400 2750
Wire Wire Line
	6450 2650 7400 2650
Wire Wire Line
	6450 2550 7400 2550
Wire Wire Line
	6450 2450 7400 2450
Wire Wire Line
	6450 2350 7400 2350
Wire Wire Line
	6450 2250 7400 2250
Wire Wire Line
	6450 2150 7400 2150
Wire Wire Line
	6450 3100 8650 3100
Wire Wire Line
	3750 1300 4400 1300
Wire Wire Line
	4400 1300 4400 2150
Wire Wire Line
	4400 2150 4650 2150
$Sheet
S 2250 2450 1550 500 
U 5F7EFA3A
F0 "usb_uart" 50
F1 "usb_uart.sch" 50
F2 "UART_TX" I R 3800 2700 50 
F3 "UART_RX" O R 3800 2800 50 
F4 "USBD+" B L 2250 2600 50 
F5 "USBD-" B L 2250 2700 50 
F6 "P3V3_USB" O R 3800 2600 50 
F7 "VBUS" I L 2250 2500 50 
F8 "P5V0_USB" O R 3800 2500 50 
$EndSheet
Wire Wire Line
	3800 2700 4650 2700
Wire Wire Line
	3800 2800 4650 2800
Wire Wire Line
	4000 2150 2050 2150
Wire Wire Line
	2050 2150 2050 1200
Wire Wire Line
	2050 1200 2350 1200
Wire Wire Line
	1600 2600 2250 2600
Wire Wire Line
	1600 2700 2250 2700
Wire Wire Line
	1600 2400 1850 2400
Wire Wire Line
	1850 2400 1850 2500
Wire Wire Line
	1850 2500 2250 2500
Wire Wire Line
	1200 3000 1200 3200
Wire Wire Line
	1200 3200 1250 3200
Wire Wire Line
	1300 3200 1300 3000
Wire Wire Line
	1250 3200 1250 3300
Connection ~ 1250 3200
Wire Wire Line
	1250 3200 1300 3200
$Comp
L power:GND #PWR0102
U 1 1 5F801F84
P 1250 3300
AR Path="/5F801F84" Ref="#PWR0102"  Part="1" 
AR Path="/5F7F8F70/5F801F84" Ref="#PWR?"  Part="1" 
F 0 "#PWR0102" H 1250 3050 50  0001 C CNN
F 1 "GND" H 1255 3127 50  0000 C CNN
F 2 "" H 1250 3300 50  0001 C CNN
F 3 "" H 1250 3300 50  0001 C CNN
	1    1250 3300
	1    0    0    -1  
$EndComp
Wire Wire Line
	4000 2600 3800 2600
Wire Wire Line
	4000 2150 4000 2600
Wire Wire Line
	2350 1100 1950 1100
Wire Wire Line
	1950 1100 1950 2250
Wire Wire Line
	1950 2250 3900 2250
Wire Wire Line
	3900 2250 3900 2500
Wire Wire Line
	3900 2500 3800 2500
$Sheet
S 2250 3800 1550 500 
U 5F871608
F0 "charger" 50
F1 "charger.sch" 50
F2 "SOLAR-P" I L 2250 3850 50 
F3 "SOLAR-N" I L 2250 3950 50 
F4 "PBAT" O R 3800 3850 50 
F5 "BAT-P" U L 2250 4150 50 
F6 "BAT-N" U L 2250 4050 50 
$EndSheet
$Sheet
S 7400 5350 1550 350 
U 5F8BA1A7
F0 "loadcell" 50
F1 "loadcell.sch" 50
$EndSheet
Wire Wire Line
	2350 1350 2200 1350
Wire Wire Line
	2200 1350 2200 2000
Wire Wire Line
	2200 2000 4150 2000
Wire Wire Line
	4150 2000 4150 3850
Wire Wire Line
	4150 3850 3800 3850
$Comp
L Connector_Generic:Conn_02x05_Odd_Even J5
U 1 1 5F92BCAC
P 1250 5500
F 0 "J5" H 1250 5800 50  0000 C CNN
F 1 "SWD" H 1300 5200 50  0000 C CNN
F 2 "Connector_PinHeader_2.54mm:PinHeader_2x05_P2.54mm_Vertical_SMD" H 1250 5500 50  0001 C CNN
F 3 "~" H 1250 5500 50  0001 C CNN
	1    1250 5500
	1    0    0    -1  
$EndComp
$Comp
L power:GND #PWR05
U 1 1 5F92EFED
P 950 5800
AR Path="/5F92EFED" Ref="#PWR05"  Part="1" 
AR Path="/5F7F8F70/5F92EFED" Ref="#PWR?"  Part="1" 
F 0 "#PWR05" H 950 5550 50  0001 C CNN
F 1 "GND" H 955 5627 50  0000 C CNN
F 2 "" H 950 5800 50  0001 C CNN
F 3 "" H 950 5800 50  0001 C CNN
	1    950  5800
	1    0    0    -1  
$EndComp
$Comp
L power:+3.3V #PWR04
U 1 1 5F92F442
P 950 5250
F 0 "#PWR04" H 950 5100 50  0001 C CNN
F 1 "+3.3V" H 965 5423 50  0000 C CNN
F 2 "" H 950 5250 50  0001 C CNN
F 3 "" H 950 5250 50  0001 C CNN
	1    950  5250
	1    0    0    -1  
$EndComp
Wire Wire Line
	950  5250 950  5300
Wire Wire Line
	950  5300 1050 5300
Wire Wire Line
	950  5800 950  5700
Wire Wire Line
	950  5400 1050 5400
Wire Wire Line
	1050 5500 950  5500
Connection ~ 950  5500
Wire Wire Line
	950  5500 950  5400
Wire Wire Line
	1050 5700 950  5700
Connection ~ 950  5700
Wire Wire Line
	950  5700 950  5500
NoConn ~ 1050 5600
NoConn ~ 1550 5600
Wire Wire Line
	1550 5700 1650 5700
Wire Wire Line
	1650 5700 1650 5600
$Comp
L Connector:Screw_Terminal_01x04 J6
U 1 1 5F949D7A
P 1250 3950
F 0 "J6" H 1168 4267 50  0000 C CNN
F 1 "SOLAR" H 1168 4176 50  0000 C CNN
F 2 "" H 1250 3950 50  0001 C CNN
F 3 "~" H 1250 3950 50  0001 C CNN
	1    1250 3950
	-1   0    0    -1  
$EndComp
Wire Wire Line
	1450 3850 2250 3850
Wire Wire Line
	1450 3950 2250 3950
Wire Wire Line
	1450 4050 2250 4050
Wire Wire Line
	1450 4150 2250 4150
NoConn ~ 1600 2800
Wire Wire Line
	1550 5300 4650 5300
Wire Wire Line
	1550 5400 4650 5400
Wire Wire Line
	1550 5500 4650 5500
Wire Wire Line
	1650 5600 4650 5600
$Comp
L power:+3.3V #PWR06
U 1 1 5F930224
P 3900 1050
F 0 "#PWR06" H 3900 900 50  0001 C CNN
F 1 "+3.3V" H 3915 1223 50  0000 C CNN
F 2 "" H 3900 1050 50  0001 C CNN
F 3 "" H 3900 1050 50  0001 C CNN
	1    3900 1050
	1    0    0    -1  
$EndComp
Wire Wire Line
	3750 1100 3900 1100
Wire Wire Line
	3900 1100 3900 1050
$Comp
L power:+3.3V #PWR08
U 1 1 5F93349F
P 4500 1850
F 0 "#PWR08" H 4500 1700 50  0001 C CNN
F 1 "+3.3V" H 4515 2023 50  0000 C CNN
F 2 "" H 4500 1850 50  0001 C CNN
F 3 "" H 4500 1850 50  0001 C CNN
	1    4500 1850
	1    0    0    -1  
$EndComp
Wire Wire Line
	4650 1950 4500 1950
Wire Wire Line
	4500 1950 4500 1850
$Comp
L power:+3.3V #PWR09
U 1 1 5F936121
P 7250 1850
F 0 "#PWR09" H 7250 1700 50  0001 C CNN
F 1 "+3.3V" H 7265 2023 50  0000 C CNN
F 2 "" H 7250 1850 50  0001 C CNN
F 3 "" H 7250 1850 50  0001 C CNN
	1    7250 1850
	1    0    0    -1  
$EndComp
Wire Wire Line
	7400 1950 7250 1950
Wire Wire Line
	7250 1950 7250 1850
$Comp
L power:+5V #PWR07
U 1 1 5F944955
P 4150 1050
F 0 "#PWR07" H 4150 900 50  0001 C CNN
F 1 "+5V" H 4165 1223 50  0000 C CNN
F 2 "" H 4150 1050 50  0001 C CNN
F 3 "" H 4150 1050 50  0001 C CNN
	1    4150 1050
	1    0    0    -1  
$EndComp
Wire Wire Line
	3750 1200 4150 1200
Wire Wire Line
	4150 1200 4150 1050
$Comp
L Connector_Generic:Conn_01x04 J4
U 1 1 5F94E316
P 9700 4800
F 0 "J4" H 9780 4792 50  0000 L CNN
F 1 "GPS" H 9780 4701 50  0000 L CNN
F 2 "Connector_PinHeader_2.54mm:PinHeader_1x04_P2.54mm_Vertical_SMD_Pin1Left" H 9700 4800 50  0001 C CNN
F 3 "~" H 9700 4800 50  0001 C CNN
	1    9700 4800
	1    0    0    -1  
$EndComp
$Comp
L power:+5V #PWR012
U 1 1 5F95249D
P 9400 4550
F 0 "#PWR012" H 9400 4400 50  0001 C CNN
F 1 "+5V" H 9415 4723 50  0000 C CNN
F 2 "" H 9400 4550 50  0001 C CNN
F 3 "" H 9400 4550 50  0001 C CNN
	1    9400 4550
	1    0    0    -1  
$EndComp
Wire Wire Line
	9400 4550 9400 4700
Wire Wire Line
	9400 4700 9500 4700
$Comp
L power:GND #PWR013
U 1 1 5F954CC3
P 9400 5100
AR Path="/5F954CC3" Ref="#PWR013"  Part="1" 
AR Path="/5F7F8F70/5F954CC3" Ref="#PWR?"  Part="1" 
F 0 "#PWR013" H 9400 4850 50  0001 C CNN
F 1 "GND" H 9405 4927 50  0000 C CNN
F 2 "" H 9400 5100 50  0001 C CNN
F 3 "" H 9400 5100 50  0001 C CNN
	1    9400 5100
	1    0    0    -1  
$EndComp
Wire Wire Line
	9400 5100 9400 5000
Wire Wire Line
	9400 5000 9500 5000
$Comp
L Connector:Conn_01x06_Female J7
U 1 1 5F95851F
P 9850 4000
F 0 "J7" H 9878 3976 50  0000 L CNN
F 1 "BME280" H 9878 3885 50  0000 L CNN
F 2 "" H 9850 4000 50  0001 C CNN
F 3 "~" H 9850 4000 50  0001 C CNN
	1    9850 4000
	1    0    0    -1  
$EndComp
Wire Wire Line
	6450 4800 9500 4800
Wire Wire Line
	6450 4900 9500 4900
$Comp
L power:+3.3V #PWR014
U 1 1 5F95D9A0
P 9350 3700
F 0 "#PWR014" H 9350 3550 50  0001 C CNN
F 1 "+3.3V" H 9365 3873 50  0000 C CNN
F 2 "" H 9350 3700 50  0001 C CNN
F 3 "" H 9350 3700 50  0001 C CNN
	1    9350 3700
	1    0    0    -1  
$EndComp
Wire Wire Line
	9350 3700 9350 3800
Wire Wire Line
	9350 3800 9650 3800
$Comp
L power:GND #PWR011
U 1 1 5F96007D
P 9350 3900
AR Path="/5F96007D" Ref="#PWR011"  Part="1" 
AR Path="/5F7F8F70/5F96007D" Ref="#PWR?"  Part="1" 
F 0 "#PWR011" H 9350 3650 50  0001 C CNN
F 1 "GND" H 9355 3727 50  0000 C CNN
F 2 "" H 9350 3900 50  0001 C CNN
F 3 "" H 9350 3900 50  0001 C CNN
	1    9350 3900
	1    0    0    -1  
$EndComp
Wire Wire Line
	9350 3900 9650 3900
Wire Wire Line
	9450 4150 9450 4000
Wire Wire Line
	9450 4000 9650 4000
Wire Wire Line
	6450 4150 9450 4150
Wire Wire Line
	9650 4100 9550 4100
Wire Wire Line
	9550 4100 9550 4250
Wire Wire Line
	6450 4250 9550 4250
$Comp
L Connector_Generic:Conn_01x03 J3
U 1 1 5F9752DC
P 9700 3100
F 0 "J3" H 9780 3142 50  0000 L CNN
F 1 "One wire" H 9780 3051 50  0000 L CNN
F 2 "Connector_PinHeader_2.54mm:PinHeader_1x03_P2.54mm_Vertical_SMD_Pin1Left" H 9700 3100 50  0001 C CNN
F 3 "~" H 9700 3100 50  0001 C CNN
	1    9700 3100
	1    0    0    -1  
$EndComp
$Comp
L power:+3.3V #PWR017
U 1 1 5F976AF2
P 9350 2950
F 0 "#PWR017" H 9350 2800 50  0001 C CNN
F 1 "+3.3V" H 9365 3123 50  0000 C CNN
F 2 "" H 9350 2950 50  0001 C CNN
F 3 "" H 9350 2950 50  0001 C CNN
	1    9350 2950
	1    0    0    -1  
$EndComp
$Comp
L power:GND #PWR018
U 1 1 5F976FD6
P 9350 3250
AR Path="/5F976FD6" Ref="#PWR018"  Part="1" 
AR Path="/5F7F8F70/5F976FD6" Ref="#PWR?"  Part="1" 
F 0 "#PWR018" H 9350 3000 50  0001 C CNN
F 1 "GND" H 9355 3077 50  0000 C CNN
F 2 "" H 9350 3250 50  0001 C CNN
F 3 "" H 9350 3250 50  0001 C CNN
	1    9350 3250
	1    0    0    -1  
$EndComp
Wire Wire Line
	9350 3250 9350 3200
Wire Wire Line
	9350 3200 9500 3200
Wire Wire Line
	9350 2950 9350 3000
Wire Wire Line
	9350 3000 9500 3000
Wire Wire Line
	8650 2950 8650 3100
Connection ~ 8650 3100
Wire Wire Line
	8650 3100 9500 3100
$Comp
L Device:C_Small C19
U 1 1 5F9A1ACF
P 8950 2850
F 0 "C19" H 9042 2896 50  0000 L CNN
F 1 "100n" H 9042 2805 50  0000 L CNN
F 2 "Capacitor_SMD:C_0603_1608Metric_Pad1.05x0.95mm_HandSolder" H 8950 2850 50  0001 C CNN
F 3 "~" H 8950 2850 50  0001 C CNN
	1    8950 2850
	1    0    0    -1  
$EndComp
$Comp
L power:+3.3V #PWR010
U 1 1 5F99B62F
P 8650 2700
F 0 "#PWR010" H 8650 2550 50  0001 C CNN
F 1 "+3.3V" H 8665 2873 50  0000 C CNN
F 2 "" H 8650 2700 50  0001 C CNN
F 3 "" H 8650 2700 50  0001 C CNN
	1    8650 2700
	1    0    0    -1  
$EndComp
$Comp
L Device:R_Small R9
U 1 1 5F9A2456
P 8650 2850
F 0 "R9" H 8709 2896 50  0000 L CNN
F 1 "4k7" H 8709 2805 50  0000 L CNN
F 2 "Resistor_SMD:R_0603_1608Metric_Pad1.05x0.95mm_HandSolder" H 8650 2850 50  0001 C CNN
F 3 "~" H 8650 2850 50  0001 C CNN
	1    8650 2850
	1    0    0    -1  
$EndComp
Wire Wire Line
	8650 2700 8650 2750
$Comp
L power:+3.3V #PWR015
U 1 1 5F9A5CB7
P 8950 2700
F 0 "#PWR015" H 8950 2550 50  0001 C CNN
F 1 "+3.3V" H 8965 2873 50  0000 C CNN
F 2 "" H 8950 2700 50  0001 C CNN
F 3 "" H 8950 2700 50  0001 C CNN
	1    8950 2700
	1    0    0    -1  
$EndComp
Wire Wire Line
	8950 2700 8950 2750
$Comp
L power:GND #PWR016
U 1 1 5F9A83FF
P 8950 2950
AR Path="/5F9A83FF" Ref="#PWR016"  Part="1" 
AR Path="/5F7F8F70/5F9A83FF" Ref="#PWR?"  Part="1" 
F 0 "#PWR016" H 8950 2700 50  0001 C CNN
F 1 "GND" H 9050 2850 50  0000 C CNN
F 2 "" H 8950 2950 50  0001 C CNN
F 3 "" H 8950 2950 50  0001 C CNN
	1    8950 2950
	1    0    0    -1  
$EndComp
$Comp
L Connector:USB_B_Micro J1
U 1 1 5F99F8EA
P 1300 2600
F 0 "J1" H 1357 3067 50  0000 C CNN
F 1 "USB_B_Micro" H 1357 2976 50  0000 C CNN
F 2 "Connector_USB:USB_Micro-B_Molex-105017-0001" H 1450 2550 50  0001 C CNN
F 3 "~" H 1450 2550 50  0001 C CNN
F 4 "C136000" H 1300 2600 50  0001 C CNN "LCSC"
	1    1300 2600
	1    0    0    -1  
$EndComp
$EndSCHEMATC
