EESchema Schematic File Version 4
EELAYER 30 0
EELAYER END
$Descr A4 11693 8268
encoding utf-8
Sheet 5 8
Title ""
Date ""
Rev ""
Comp ""
Comment1 ""
Comment2 ""
Comment3 ""
Comment4 ""
$EndDescr
Wire Wire Line
	6700 3150 5500 3150
$Comp
L power:GND #PWR0127
U 1 1 5F927B95
P 5750 3350
F 0 "#PWR0127" H 5750 3100 50  0001 C CNN
F 1 "GND" H 5755 3177 50  0000 C CNN
F 2 "" H 5750 3350 50  0001 C CNN
F 3 "" H 5750 3350 50  0001 C CNN
	1    5750 3350
	1    0    0    -1  
$EndComp
Wire Wire Line
	5500 3050 5750 3050
Wire Wire Line
	5500 3250 5750 3250
Wire Wire Line
	5750 3250 5750 3350
$Comp
L Device:R R9
U 1 1 5F927B9F
P 6100 3050
F 0 "R9" V 6000 2950 50  0000 L CNN
F 1 "4k7" V 6000 3100 50  0000 L CNN
F 2 "Resistor_SMD:R_0603_1608Metric_Pad1.05x0.95mm_HandSolder" V 6030 3050 50  0001 C CNN
F 3 "~" H 6100 3050 50  0001 C CNN
	1    6100 3050
	0    1    1    0   
$EndComp
Wire Wire Line
	6250 3050 6700 3050
$Comp
L Sensor_Temperature:DS18B20 U5
U 1 1 5F927BA8
P 5100 4050
F 0 "U5" H 4870 4096 50  0000 R CNN
F 1 "DS18B20" H 4870 4005 50  0000 R CNN
F 2 "Package_TO_SOT_THT:TO-92_Inline" H 4100 3800 50  0001 C CNN
F 3 "http://datasheets.maximintegrated.com/en/ds/DS18B20.pdf" H 4950 4300 50  0001 C CNN
	1    5100 4050
	1    0    0    -1  
$EndComp
$Comp
L power:GND #PWR0128
U 1 1 5F927BB4
P 5100 4450
F 0 "#PWR0128" H 5100 4200 50  0001 C CNN
F 1 "GND" H 5105 4277 50  0000 C CNN
F 2 "" H 5100 4450 50  0001 C CNN
F 3 "" H 5100 4450 50  0001 C CNN
	1    5100 4450
	1    0    0    -1  
$EndComp
Wire Wire Line
	5100 4350 5100 4450
Wire Wire Line
	5400 4050 6700 4050
Wire Wire Line
	6700 3050 6700 3150
Wire Wire Line
	6700 3150 6700 4050
Connection ~ 6700 3150
Wire Wire Line
	6700 3050 6850 3050
Connection ~ 6700 3050
Text HLabel 6850 3050 2    50   BiDi ~ 0
TEMP_PB1
Wire Wire Line
	4350 2500 4750 2500
Wire Wire Line
	5750 2500 5750 3050
Connection ~ 5750 3050
Wire Wire Line
	5750 3050 5950 3050
Text HLabel 4350 2500 0    50   Input ~ 0
P3V3
Connection ~ 5100 2500
Wire Wire Line
	5100 2500 5750 2500
$Comp
L Device:C C19
U 1 1 5F7F942E
P 4750 2900
F 0 "C19" H 4865 2946 50  0000 L CNN
F 1 "100n" H 4865 2855 50  0000 L CNN
F 2 "Capacitor_SMD:C_0603_1608Metric_Pad1.05x0.95mm_HandSolder" H 4788 2750 50  0001 C CNN
F 3 "~" H 4750 2900 50  0001 C CNN
F 4 "C14663" H 4750 2900 50  0001 C CNN "LCSC Part #"
F 5 "C14663" H 4750 2900 50  0001 C CNN "LCSC"
	1    4750 2900
	1    0    0    -1  
$EndComp
Wire Wire Line
	4750 2750 4750 2500
Connection ~ 4750 2500
Wire Wire Line
	4750 2500 5100 2500
Wire Wire Line
	4750 3050 4750 3150
$Comp
L power:GND #PWR0129
U 1 1 5F7FAB0C
P 4750 3150
F 0 "#PWR0129" H 4750 2900 50  0001 C CNN
F 1 "GND" H 4755 2977 50  0000 C CNN
F 2 "" H 4750 3150 50  0001 C CNN
F 3 "" H 4750 3150 50  0001 C CNN
	1    4750 3150
	1    0    0    -1  
$EndComp
Wire Wire Line
	5100 2500 5100 3750
$EndSCHEMATC
