EESchema Schematic File Version 4
EELAYER 30 0
EELAYER END
$Descr A4 11693 8268
encoding utf-8
Sheet 6 7
Title ""
Date ""
Rev ""
Comp ""
Comment1 ""
Comment2 ""
Comment3 ""
Comment4 ""
$EndDescr
Text HLabel 9000 3250 2    50   Input ~ 0
UART_TX
Text HLabel 9000 3150 2    50   Output ~ 0
UART_RX
$Comp
L Interface_USB:FT232RL U6
U 1 1 5F7F2C46
P 6050 3850
F 0 "U6" H 6450 4900 50  0000 C CNN
F 1 "FT232RL" H 6550 4800 50  0000 C CNN
F 2 "Package_SO:SSOP-28_5.3x10.2mm_P0.65mm" H 7150 2950 50  0001 C CNN
F 3 "https://www.ftdichip.com/Support/Documents/DataSheets/ICs/DS_FT232R.pdf" H 6050 3850 50  0001 C CNN
	1    6050 3850
	1    0    0    -1  
$EndComp
Wire Wire Line
	6850 3150 9000 3150
Wire Wire Line
	6850 3250 9000 3250
Wire Wire Line
	5250 3150 5100 3150
Wire Wire Line
	5100 3150 5100 2700
Wire Wire Line
	5100 2700 5950 2700
Wire Wire Line
	5950 2700 5950 2850
$Comp
L power:GND #PWR0130
U 1 1 5F7F877D
P 5850 5200
F 0 "#PWR0130" H 5850 4950 50  0001 C CNN
F 1 "GND" H 5855 5027 50  0000 C CNN
F 2 "" H 5850 5200 50  0001 C CNN
F 3 "" H 5850 5200 50  0001 C CNN
	1    5850 5200
	1    0    0    -1  
$EndComp
Wire Wire Line
	5850 4850 5850 5000
Wire Wire Line
	5850 5000 6050 5000
Wire Wire Line
	6250 5000 6250 4850
Wire Wire Line
	6150 4850 6150 5000
Connection ~ 6150 5000
Wire Wire Line
	6150 5000 6250 5000
Wire Wire Line
	6050 4850 6050 5000
Connection ~ 6050 5000
Wire Wire Line
	6050 5000 6150 5000
Wire Wire Line
	5850 5000 5850 5200
Connection ~ 5850 5000
Wire Wire Line
	5250 3450 2500 3450
Wire Wire Line
	5250 3550 2500 3550
Text HLabel 2500 3450 0    50   BiDi ~ 0
USBD+
Text HLabel 2500 3550 0    50   BiDi ~ 0
USBD-
Wire Wire Line
	5950 2700 9000 2700
Connection ~ 5950 2700
Text HLabel 9000 2700 2    50   Output ~ 0
P3V3_USB
$Comp
L Device:LED D5
U 1 1 5F7EF0A3
P 7800 4150
F 0 "D5" H 7793 4367 50  0000 C CNN
F 1 "TXLED RD" H 7793 4276 50  0000 C CNN
F 2 "Capacitor_SMD:C_0603_1608Metric_Pad1.05x0.95mm_HandSolder" H 7800 4150 50  0001 C CNN
F 3 "~" H 7800 4150 50  0001 C CNN
F 4 "C72044" H 7800 4150 50  0001 C CNN "LCSC Part #"
F 5 "C72044" H 7800 4150 50  0001 C CNN "LCSC"
	1    7800 4150
	1    0    0    -1  
$EndComp
$Comp
L Device:LED D6
U 1 1 5F7EF51F
P 7800 4500
F 0 "D6" H 7793 4717 50  0000 C CNN
F 1 "RXLED GRN" H 7793 4626 50  0000 C CNN
F 2 "Capacitor_SMD:C_0603_1608Metric_Pad1.05x0.95mm_HandSolder" H 7800 4500 50  0001 C CNN
F 3 "~" H 7800 4500 50  0001 C CNN
F 4 "C72043" H 7800 4500 50  0001 C CNN "LCSC Part #"
F 5 "C72043" H 7800 4500 50  0001 C CNN "LCSC"
	1    7800 4500
	1    0    0    -1  
$EndComp
Wire Wire Line
	7650 4150 6850 4150
Wire Wire Line
	7650 4500 7450 4500
Wire Wire Line
	7450 4500 7450 4250
Wire Wire Line
	7450 4250 6850 4250
$Comp
L Device:R R10
U 1 1 5F7F2366
P 8250 3750
F 0 "R10" H 8320 3796 50  0000 L CNN
F 1 "330" H 8320 3705 50  0000 L CNN
F 2 "Resistor_SMD:R_0603_1608Metric_Pad1.05x0.95mm_HandSolder" V 8180 3750 50  0001 C CNN
F 3 "~" H 8250 3750 50  0001 C CNN
	1    8250 3750
	1    0    0    -1  
$EndComp
$Comp
L Device:R R11
U 1 1 5F7F2951
P 8550 3750
F 0 "R11" H 8620 3796 50  0000 L CNN
F 1 "330" H 8620 3705 50  0000 L CNN
F 2 "Resistor_SMD:R_0603_1608Metric_Pad1.05x0.95mm_HandSolder" V 8480 3750 50  0001 C CNN
F 3 "~" H 8550 3750 50  0001 C CNN
	1    8550 3750
	1    0    0    -1  
$EndComp
Wire Wire Line
	8250 3900 8250 4150
Wire Wire Line
	8250 4150 7950 4150
Wire Wire Line
	8550 3900 8550 4500
Wire Wire Line
	8550 4500 7950 4500
Wire Wire Line
	8250 3600 8250 3500
Wire Wire Line
	8250 3500 8550 3500
Wire Wire Line
	8550 3500 8550 3600
Wire Wire Line
	6150 2850 6150 2600
Wire Wire Line
	6150 2600 4100 2600
Text HLabel 2500 2600 0    50   Input ~ 0
VBUS
$Comp
L Device:C C22
U 1 1 5F7F286C
P 4500 2950
F 0 "C22" H 4615 2996 50  0000 L CNN
F 1 "100n" H 4615 2905 50  0000 L CNN
F 2 "Capacitor_SMD:C_0603_1608Metric_Pad1.05x0.95mm_HandSolder" H 4538 2800 50  0001 C CNN
F 3 "~" H 4500 2950 50  0001 C CNN
F 4 "C14663" H 4500 2950 50  0001 C CNN "LCSC Part #"
F 5 "C14663" H 4500 2950 50  0001 C CNN "LCSC"
	1    4500 2950
	1    0    0    -1  
$EndComp
Wire Wire Line
	4500 2800 4500 2700
Wire Wire Line
	4500 2700 5100 2700
Connection ~ 5100 2700
Wire Wire Line
	4500 3100 4500 3200
$Comp
L power:GND #PWR0131
U 1 1 5F7F50B1
P 4500 3200
F 0 "#PWR0131" H 4500 2950 50  0001 C CNN
F 1 "GND" H 4505 3027 50  0000 C CNN
F 2 "" H 4500 3200 50  0001 C CNN
F 3 "" H 4500 3200 50  0001 C CNN
	1    4500 3200
	1    0    0    -1  
$EndComp
$Comp
L Device:C C21
U 1 1 5F7F6274
P 4100 2950
F 0 "C21" H 4215 2996 50  0000 L CNN
F 1 "100n" H 4215 2905 50  0000 L CNN
F 2 "Capacitor_SMD:C_0603_1608Metric_Pad1.05x0.95mm_HandSolder" H 4138 2800 50  0001 C CNN
F 3 "~" H 4100 2950 50  0001 C CNN
F 4 "C14663" H 4100 2950 50  0001 C CNN "LCSC Part #"
F 5 "C14663" H 4100 2950 50  0001 C CNN "LCSC"
	1    4100 2950
	1    0    0    -1  
$EndComp
Wire Wire Line
	4100 2800 4100 2600
Connection ~ 4100 2600
Wire Wire Line
	4100 2600 3550 2600
Wire Wire Line
	4100 3100 4100 3200
$Comp
L power:GND #PWR0132
U 1 1 5F7F7268
P 4100 3200
F 0 "#PWR0132" H 4100 2950 50  0001 C CNN
F 1 "GND" H 4105 3027 50  0000 C CNN
F 2 "" H 4100 3200 50  0001 C CNN
F 3 "" H 4100 3200 50  0001 C CNN
	1    4100 3200
	1    0    0    -1  
$EndComp
Wire Wire Line
	3550 2800 3550 2600
Connection ~ 3550 2600
Wire Wire Line
	3550 2600 3100 2600
Wire Wire Line
	3550 3100 3550 3200
$Comp
L power:GND #PWR0133
U 1 1 5F7FD503
P 3550 3200
F 0 "#PWR0133" H 3550 2950 50  0001 C CNN
F 1 "GND" H 3555 3027 50  0000 C CNN
F 2 "" H 3550 3200 50  0001 C CNN
F 3 "" H 3550 3200 50  0001 C CNN
	1    3550 3200
	1    0    0    -1  
$EndComp
Wire Wire Line
	5250 4550 5100 4550
Wire Wire Line
	5100 4550 5100 5000
Wire Wire Line
	5100 5000 5850 5000
Wire Wire Line
	6150 2600 8550 2600
Wire Wire Line
	8550 2600 8550 3500
Connection ~ 6150 2600
Connection ~ 8550 3500
$Comp
L Device:Ferrite_Bead FB1
U 1 1 5F7F3801
P 2950 2600
F 0 "FB1" V 3224 2600 50  0000 C CNN
F 1 "GZ2012D601TF" V 3133 2600 50  0000 C CNN
F 2 "Inductor_SMD:L_0805_2012Metric_Pad1.15x1.40mm_HandSolder" V 2880 2600 50  0001 C CNN
F 3 "~" H 2950 2600 50  0001 C CNN
F 4 "C1017" H 2950 2600 50  0001 C CNN "LCSC"
F 5 "C1017" H 2950 2600 50  0001 C CNN "LCSC Part #"
	1    2950 2600
	0    -1   -1   0   
$EndComp
Wire Wire Line
	2800 2600 2500 2600
Wire Wire Line
	8550 2600 9000 2600
Connection ~ 8550 2600
Text HLabel 9000 2600 2    50   Output ~ 0
P5V0_USB
$Comp
L Device:C C20
U 1 1 5F9204D6
P 3550 2950
F 0 "C20" H 3665 2996 50  0000 L CNN
F 1 "10u" H 3665 2905 50  0000 L CNN
F 2 "Capacitor_SMD:C_0805_2012Metric_Pad1.15x1.40mm_HandSolder" H 3588 2800 50  0001 C CNN
F 3 "~" H 3550 2950 50  0001 C CNN
F 4 "C15850" H 3550 2950 50  0001 C CNN "LCSC Part #"
F 5 "C15850" H 3550 2950 50  0001 C CNN "LCSC"
	1    3550 2950
	1    0    0    -1  
$EndComp
$EndSCHEMATC
